<?xml version="1.0"?>
<svg xmlns="http://www.w3.org/2000/svg" xmlns:xlink="http://www.w3.org/1999/xlink" viewBox="0 0 449.400000 196.000000" width="224.700000mm" height="98.000000mm" version="1.1">
<a xlink:href="tick-0x7f14348f8920.svg">
<rect x="1.000000" y="1.000000" width="448.400000" height="195.000000" rx="0" ry="0" style="stroke:none;fill:#cccccc;"/>
<rect x="0.000000" y="0.000000" width="448.400000" height="195.000000" rx="0" ry="0" style="stroke:none;fill:#ffffff;"/>
</a>
<text x="10.000000" y="7.000000" font-family="Arial" font-size="7"></text>
<rect x="65.000000" y="39.000000" width="25.800000" height="24.000000" rx="0" ry="0" style="stroke:none;fill:#cccccc;"/>
<rect x="64.000000" y="38.000000" width="25.800000" height="24.000000" rx="0" ry="0" style="stroke:none;fill:#47945E;"/>
<text x="76.900000" y="52.000000" font-family="Arial" font-size="7" text-anchor="middle" fill="#FFFFFF">ic1eq</text>
<circle cx="66.000000" cy="40.000000" r="1"/>
<a xlink:href="g-0x7f14348910d0.svg">
<rect x="45.900000" y="71.000000" width="24.000000" height="24.000000" rx="0" ry="0" style="stroke:none;fill:#cccccc;"/>
<rect x="44.900000" y="70.000000" width="24.000000" height="24.000000" rx="0" ry="0" style="stroke:none;fill:#003366;"/>
</a>
<a xlink:href="g-0x7f14348910d0.svg">
<text x="56.900000" y="84.000000" font-family="Arial" font-size="7" text-anchor="middle" fill="#FFFFFF">g</text>
</a>
<circle cx="46.900000" cy="72.000000" r="1"/>
<rect x="25.900000" y="103.000000" width="24.000000" height="24.000000" rx="0" ry="0" style="stroke:none;fill:#cccccc;"/>
<rect x="24.900000" y="102.000000" width="24.000000" height="24.000000" rx="0" ry="0" style="stroke:none;fill:#47945E;"/>
<text x="36.900000" y="116.000000" font-family="Arial" font-size="7" text-anchor="middle" fill="#FFFFFF">v0</text>
<circle cx="26.900000" cy="104.000000" r="1"/>
<rect x="25.000000" y="135.000000" width="25.800000" height="24.000000" rx="0" ry="0" style="stroke:none;fill:#cccccc;"/>
<rect x="24.000000" y="134.000000" width="25.800000" height="24.000000" rx="0" ry="0" style="stroke:none;fill:#47945E;"/>
<text x="36.900000" y="148.000000" font-family="Arial" font-size="7" text-anchor="middle" fill="#FFFFFF">ic2eq</text>
<circle cx="26.000000" cy="136.000000" r="1"/>
<rect x="66.800000" y="119.000000" width="24.000000" height="24.000000" rx="0" ry="0" style="stroke:none;fill:#cccccc;"/>
<rect x="65.800000" y="118.000000" width="24.000000" height="24.000000" rx="0" ry="0" style="stroke:none;fill:#4B71A1;"/>
<text x="77.800000" y="132.000000" font-family="Arial" font-size="7" text-anchor="middle" fill="#FFFFFF">-</text>
<circle cx="67.800000" cy="120.000000" r="1"/>
<line x1="62.800000" y1="125.000000" x2="65.800000" y2="126.000000"  transform="rotate(0.000000,65.800000,126.000000)" style="stroke: black; stroke-width:0.25;"/>
<line x1="62.800000" y1="127.000000" x2="65.800000" y2="126.000000"  transform="rotate(0.000000,65.800000,126.000000)" style="stroke: black; stroke-width:0.25;"/>
<line x1="62.800000" y1="133.000000" x2="65.800000" y2="134.000000"  transform="rotate(0.000000,65.800000,134.000000)" style="stroke: black; stroke-width:0.25;"/>
<line x1="62.800000" y1="135.000000" x2="65.800000" y2="134.000000"  transform="rotate(0.000000,65.800000,134.000000)" style="stroke: black; stroke-width:0.25;"/>
<rect x="106.800000" y="103.000000" width="24.000000" height="24.000000" rx="0" ry="0" style="stroke:none;fill:#cccccc;"/>
<rect x="105.800000" y="102.000000" width="24.000000" height="24.000000" rx="0" ry="0" style="stroke:none;fill:#4B71A1;"/>
<text x="117.800000" y="116.000000" font-family="Arial" font-size="7" text-anchor="middle" fill="#FFFFFF">*</text>
<circle cx="107.800000" cy="104.000000" r="1"/>
<line x1="102.800000" y1="109.000000" x2="105.800000" y2="110.000000"  transform="rotate(0.000000,105.800000,110.000000)" style="stroke: black; stroke-width:0.25;"/>
<line x1="102.800000" y1="111.000000" x2="105.800000" y2="110.000000"  transform="rotate(0.000000,105.800000,110.000000)" style="stroke: black; stroke-width:0.25;"/>
<line x1="102.800000" y1="117.000000" x2="105.800000" y2="118.000000"  transform="rotate(0.000000,105.800000,118.000000)" style="stroke: black; stroke-width:0.25;"/>
<line x1="102.800000" y1="119.000000" x2="105.800000" y2="118.000000"  transform="rotate(0.000000,105.800000,118.000000)" style="stroke: black; stroke-width:0.25;"/>
<rect x="146.800000" y="87.000000" width="24.000000" height="24.000000" rx="0" ry="0" style="stroke:none;fill:#cccccc;"/>
<rect x="145.800000" y="86.000000" width="24.000000" height="24.000000" rx="0" ry="0" style="stroke:none;fill:#4B71A1;"/>
<text x="157.800000" y="100.000000" font-family="Arial" font-size="7" text-anchor="middle" fill="#FFFFFF">+</text>
<circle cx="147.800000" cy="88.000000" r="1"/>
<line x1="142.800000" y1="93.000000" x2="145.800000" y2="94.000000"  transform="rotate(0.000000,145.800000,94.000000)" style="stroke: black; stroke-width:0.25;"/>
<line x1="142.800000" y1="95.000000" x2="145.800000" y2="94.000000"  transform="rotate(0.000000,145.800000,94.000000)" style="stroke: black; stroke-width:0.25;"/>
<line x1="142.800000" y1="101.000000" x2="145.800000" y2="102.000000"  transform="rotate(0.000000,145.800000,102.000000)" style="stroke: black; stroke-width:0.25;"/>
<line x1="142.800000" y1="103.000000" x2="145.800000" y2="102.000000"  transform="rotate(0.000000,145.800000,102.000000)" style="stroke: black; stroke-width:0.25;"/>
<rect x="250.600000" y="33.000000" width="24.000000" height="24.000000" rx="0" ry="0" style="stroke:none;fill:#cccccc;"/>
<rect x="249.600000" y="32.000000" width="24.000000" height="24.000000" rx="0" ry="0" style="stroke:none;fill:#f44800;"/>
<text x="261.600000" y="46.000000" font-family="Arial" font-size="7" text-anchor="middle" fill="#FFFFFF">1</text>
<circle cx="251.600000" cy="34.000000" r="1"/>
<a xlink:href="g-0x7f14348910d0.svg">
<rect x="230.600000" y="65.000000" width="24.000000" height="24.000000" rx="0" ry="0" style="stroke:none;fill:#cccccc;"/>
<rect x="229.600000" y="64.000000" width="24.000000" height="24.000000" rx="0" ry="0" style="stroke:none;fill:#003366;"/>
</a>
<a xlink:href="g-0x7f14348910d0.svg">
<text x="241.600000" y="78.000000" font-family="Arial" font-size="7" text-anchor="middle" fill="#FFFFFF">g</text>
</a>
<circle cx="231.600000" cy="66.000000" r="1"/>
<a xlink:href="g-0x7f14348910d0.svg">
<rect x="210.600000" y="97.000000" width="24.000000" height="24.000000" rx="0" ry="0" style="stroke:none;fill:#cccccc;"/>
<rect x="209.600000" y="96.000000" width="24.000000" height="24.000000" rx="0" ry="0" style="stroke:none;fill:#003366;"/>
</a>
<a xlink:href="g-0x7f14348910d0.svg">
<text x="221.600000" y="110.000000" font-family="Arial" font-size="7" text-anchor="middle" fill="#FFFFFF">g</text>
</a>
<circle cx="211.600000" cy="98.000000" r="1"/>
<rect x="196.800000" y="139.000000" width="51.600000" height="24.000000" rx="0" ry="0" style="stroke:none;fill:#cccccc;"/>
<rect x="195.800000" y="138.000000" width="51.600000" height="24.000000" rx="0" ry="0" style="stroke:none;fill:#f44800;"/>
<text x="221.600000" y="152.000000" font-family="Arial" font-size="7" text-anchor="middle" fill="#FFFFFF">1.4142135f</text>
<circle cx="197.800000" cy="140.000000" r="1"/>
<line x1="186.800000" y1="129.000000" x2="186.800000" y2="171.000000"  style="stroke: black; stroke-linecap:round; stroke-width:0.25; stroke-dasharray:3,3;"/>
<line x1="186.800000" y1="171.000000" x2="256.400000" y2="171.000000"  style="stroke: black; stroke-linecap:round; stroke-width:0.25; stroke-dasharray:3,3;"/>
<line x1="256.400000" y1="171.000000" x2="256.400000" y2="129.000000"  style="stroke: black; stroke-linecap:round; stroke-width:0.25; stroke-dasharray:3,3;"/>
<line x1="186.800000" y1="129.000000" x2="191.800000" y2="129.000000"  style="stroke: black; stroke-linecap:round; stroke-width:0.25; stroke-dasharray:3,3;"/>
<line x1="201.475000" y1="129.000000" x2="256.400000" y2="129.000000"  style="stroke: black; stroke-linecap:round; stroke-width:0.25; stroke-dasharray:3,3;"/>
<text x="191.800000" y="131.000000" font-family="Arial" font-size="7">k</text>
<rect x="274.400000" y="123.000000" width="24.000000" height="24.000000" rx="0" ry="0" style="stroke:none;fill:#cccccc;"/>
<rect x="273.400000" y="122.000000" width="24.000000" height="24.000000" rx="0" ry="0" style="stroke:none;fill:#4B71A1;"/>
<text x="285.400000" y="136.000000" font-family="Arial" font-size="7" text-anchor="middle" fill="#FFFFFF">+</text>
<circle cx="275.400000" cy="124.000000" r="1"/>
<line x1="270.400000" y1="129.000000" x2="273.400000" y2="130.000000"  transform="rotate(0.000000,273.400000,130.000000)" style="stroke: black; stroke-width:0.25;"/>
<line x1="270.400000" y1="131.000000" x2="273.400000" y2="130.000000"  transform="rotate(0.000000,273.400000,130.000000)" style="stroke: black; stroke-width:0.25;"/>
<line x1="270.400000" y1="137.000000" x2="273.400000" y2="138.000000"  transform="rotate(0.000000,273.400000,138.000000)" style="stroke: black; stroke-width:0.25;"/>
<line x1="270.400000" y1="139.000000" x2="273.400000" y2="138.000000"  transform="rotate(0.000000,273.400000,138.000000)" style="stroke: black; stroke-width:0.25;"/>
<rect x="314.400000" y="107.000000" width="24.000000" height="24.000000" rx="0" ry="0" style="stroke:none;fill:#cccccc;"/>
<rect x="313.400000" y="106.000000" width="24.000000" height="24.000000" rx="0" ry="0" style="stroke:none;fill:#4B71A1;"/>
<text x="325.400000" y="120.000000" font-family="Arial" font-size="7" text-anchor="middle" fill="#FFFFFF">*</text>
<circle cx="315.400000" cy="108.000000" r="1"/>
<line x1="310.400000" y1="113.000000" x2="313.400000" y2="114.000000"  transform="rotate(0.000000,313.400000,114.000000)" style="stroke: black; stroke-width:0.25;"/>
<line x1="310.400000" y1="115.000000" x2="313.400000" y2="114.000000"  transform="rotate(0.000000,313.400000,114.000000)" style="stroke: black; stroke-width:0.25;"/>
<line x1="310.400000" y1="121.000000" x2="313.400000" y2="122.000000"  transform="rotate(0.000000,313.400000,122.000000)" style="stroke: black; stroke-width:0.25;"/>
<line x1="310.400000" y1="123.000000" x2="313.400000" y2="122.000000"  transform="rotate(0.000000,313.400000,122.000000)" style="stroke: black; stroke-width:0.25;"/>
<rect x="354.400000" y="91.000000" width="24.000000" height="24.000000" rx="0" ry="0" style="stroke:none;fill:#cccccc;"/>
<rect x="353.400000" y="90.000000" width="24.000000" height="24.000000" rx="0" ry="0" style="stroke:none;fill:#4B71A1;"/>
<text x="365.400000" y="104.000000" font-family="Arial" font-size="7" text-anchor="middle" fill="#FFFFFF">+</text>
<circle cx="355.400000" cy="92.000000" r="1"/>
<line x1="350.400000" y1="97.000000" x2="353.400000" y2="98.000000"  transform="rotate(0.000000,353.400000,98.000000)" style="stroke: black; stroke-width:0.25;"/>
<line x1="350.400000" y1="99.000000" x2="353.400000" y2="98.000000"  transform="rotate(0.000000,353.400000,98.000000)" style="stroke: black; stroke-width:0.25;"/>
<line x1="350.400000" y1="105.000000" x2="353.400000" y2="106.000000"  transform="rotate(0.000000,353.400000,106.000000)" style="stroke: black; stroke-width:0.25;"/>
<line x1="350.400000" y1="107.000000" x2="353.400000" y2="106.000000"  transform="rotate(0.000000,353.400000,106.000000)" style="stroke: black; stroke-width:0.25;"/>
<rect x="394.400000" y="87.000000" width="24.000000" height="24.000000" rx="0" ry="0" style="stroke:none;fill:#cccccc;"/>
<rect x="393.400000" y="86.000000" width="24.000000" height="24.000000" rx="0" ry="0" style="stroke:none;fill:#4B71A1;"/>
<text x="405.400000" y="100.000000" font-family="Arial" font-size="7" text-anchor="middle" fill="#FFFFFF">/</text>
<circle cx="395.400000" cy="88.000000" r="1"/>
<line x1="390.400000" y1="93.000000" x2="393.400000" y2="94.000000"  transform="rotate(0.000000,393.400000,94.000000)" style="stroke: black; stroke-width:0.25;"/>
<line x1="390.400000" y1="95.000000" x2="393.400000" y2="94.000000"  transform="rotate(0.000000,393.400000,94.000000)" style="stroke: black; stroke-width:0.25;"/>
<line x1="390.400000" y1="101.000000" x2="393.400000" y2="102.000000"  transform="rotate(0.000000,393.400000,102.000000)" style="stroke: black; stroke-width:0.25;"/>
<line x1="390.400000" y1="103.000000" x2="393.400000" y2="102.000000"  transform="rotate(0.000000,393.400000,102.000000)" style="stroke: black; stroke-width:0.25;"/>
<line x1="15.000000" y1="15.000000" x2="15.000000" y2="181.000000"  style="stroke: black; stroke-linecap:round; stroke-width:0.25; stroke-dasharray:3,3;"/>
<line x1="15.000000" y1="181.000000" x2="434.400000" y2="181.000000"  style="stroke: black; stroke-linecap:round; stroke-width:0.25; stroke-dasharray:3,3;"/>
<line x1="434.400000" y1="181.000000" x2="434.400000" y2="15.000000"  style="stroke: black; stroke-linecap:round; stroke-width:0.25; stroke-dasharray:3,3;"/>
<line x1="15.000000" y1="15.000000" x2="20.000000" y2="15.000000"  style="stroke: black; stroke-linecap:round; stroke-width:0.25; stroke-dasharray:3,3;"/>
<line x1="32.900000" y1="15.000000" x2="434.400000" y2="15.000000"  style="stroke: black; stroke-linecap:round; stroke-width:0.25; stroke-dasharray:3,3;"/>
<text x="20.000000" y="17.000000" font-family="Arial" font-size="7">v1</text>
<line x1="436.400000" y1="97.000000" x2="439.400000" y2="98.000000"  transform="rotate(0.000000,439.400000,98.000000)" style="stroke: black; stroke-width:0.25;"/>
<line x1="436.400000" y1="99.000000" x2="439.400000" y2="98.000000"  transform="rotate(0.000000,439.400000,98.000000)" style="stroke: black; stroke-width:0.25;"/>
<line x1="48.900000" y1="114.000000" x2="52.900000" y2="114.000000"  style="stroke:black; stroke-linecap:round; stroke-width:0.25;"/>
<line x1="49.800000" y1="146.000000" x2="53.800000" y2="146.000000"  style="stroke:black; stroke-linecap:round; stroke-width:0.25;"/>
<line x1="52.900000" y1="114.000000" x2="53.800000" y2="114.000000"  style="stroke:black; stroke-linecap:round; stroke-width:0.25;"/>
<line x1="53.800000" y1="114.000000" x2="61.800000" y2="114.000000"  style="stroke:black; stroke-linecap:round; stroke-width:0.25;"/>
<line x1="53.800000" y1="134.000000" x2="61.800000" y2="134.000000"  style="stroke:black; stroke-linecap:round; stroke-width:0.25;"/>
<line x1="53.800000" y1="146.000000" x2="53.800000" y2="134.000000"  style="stroke:black; stroke-linecap:round; stroke-width:0.25;"/>
<line x1="53.800000" y1="146.000000" x2="53.800000" y2="146.000000"  style="stroke:black; stroke-linecap:round; stroke-width:0.25;"/>
<line x1="61.800000" y1="114.000000" x2="61.800000" y2="126.000000"  style="stroke:black; stroke-linecap:round; stroke-width:0.25;"/>
<line x1="61.800000" y1="126.000000" x2="61.800000" y2="126.000000"  style="stroke:black; stroke-linecap:round; stroke-width:0.25;"/>
<line x1="61.800000" y1="126.000000" x2="65.800000" y2="126.000000"  style="stroke:black; stroke-linecap:round; stroke-width:0.25;"/>
<line x1="61.800000" y1="134.000000" x2="65.800000" y2="134.000000"  style="stroke:black; stroke-linecap:round; stroke-width:0.25;"/>
<line x1="68.900000" y1="82.000000" x2="72.900000" y2="82.000000"  style="stroke:black; stroke-linecap:round; stroke-width:0.25;"/>
<line x1="72.900000" y1="82.000000" x2="93.800000" y2="82.000000"  style="stroke:black; stroke-linecap:round; stroke-width:0.25;"/>
<line x1="89.800000" y1="50.000000" x2="93.800000" y2="50.000000"  style="stroke:black; stroke-linecap:round; stroke-width:0.25;"/>
<line x1="89.800000" y1="130.000000" x2="93.800000" y2="130.000000"  style="stroke:black; stroke-linecap:round; stroke-width:0.25;"/>
<line x1="93.800000" y1="50.000000" x2="133.800000" y2="50.000000"  style="stroke:black; stroke-linecap:round; stroke-width:0.25;"/>
<line x1="93.800000" y1="118.000000" x2="101.800000" y2="118.000000"  style="stroke:black; stroke-linecap:round; stroke-width:0.25;"/>
<line x1="93.800000" y1="130.000000" x2="93.800000" y2="118.000000"  style="stroke:black; stroke-linecap:round; stroke-width:0.25;"/>
<line x1="93.800000" y1="130.000000" x2="93.800000" y2="130.000000"  style="stroke:black; stroke-linecap:round; stroke-width:0.25;"/>
<line x1="93.800000" y1="82.000000" x2="101.800000" y2="82.000000"  style="stroke:black; stroke-linecap:round; stroke-width:0.25;"/>
<line x1="101.800000" y1="110.000000" x2="105.800000" y2="110.000000"  style="stroke:black; stroke-linecap:round; stroke-width:0.25;"/>
<line x1="101.800000" y1="118.000000" x2="105.800000" y2="118.000000"  style="stroke:black; stroke-linecap:round; stroke-width:0.25;"/>
<line x1="101.800000" y1="82.000000" x2="101.800000" y2="110.000000"  style="stroke:black; stroke-linecap:round; stroke-width:0.25;"/>
<line x1="101.800000" y1="110.000000" x2="101.800000" y2="110.000000"  style="stroke:black; stroke-linecap:round; stroke-width:0.25;"/>
<line x1="129.800000" y1="114.000000" x2="133.800000" y2="114.000000"  style="stroke:black; stroke-linecap:round; stroke-width:0.25;"/>
<line x1="133.800000" y1="50.000000" x2="141.800000" y2="50.000000"  style="stroke:black; stroke-linecap:round; stroke-width:0.25;"/>
<line x1="133.800000" y1="102.000000" x2="141.800000" y2="102.000000"  style="stroke:black; stroke-linecap:round; stroke-width:0.25;"/>
<line x1="133.800000" y1="114.000000" x2="133.800000" y2="102.000000"  style="stroke:black; stroke-linecap:round; stroke-width:0.25;"/>
<line x1="133.800000" y1="114.000000" x2="133.800000" y2="114.000000"  style="stroke:black; stroke-linecap:round; stroke-width:0.25;"/>
<line x1="141.800000" y1="50.000000" x2="141.800000" y2="94.000000"  style="stroke:black; stroke-linecap:round; stroke-width:0.25;"/>
<line x1="141.800000" y1="94.000000" x2="141.800000" y2="94.000000"  style="stroke:black; stroke-linecap:round; stroke-width:0.25;"/>
<line x1="141.800000" y1="94.000000" x2="145.800000" y2="94.000000"  style="stroke:black; stroke-linecap:round; stroke-width:0.25;"/>
<line x1="141.800000" y1="102.000000" x2="145.800000" y2="102.000000"  style="stroke:black; stroke-linecap:round; stroke-width:0.25;"/>
<line x1="169.800000" y1="98.000000" x2="173.800000" y2="98.000000"  style="stroke:black; stroke-linecap:round; stroke-width:0.25;"/>
<line x1="173.800000" y1="24.000000" x2="181.800000" y2="24.000000"  style="stroke:black; stroke-linecap:round; stroke-width:0.25;"/>
<line x1="173.800000" y1="98.000000" x2="173.800000" y2="24.000000"  style="stroke:black; stroke-linecap:round; stroke-width:0.25;"/>
<line x1="173.800000" y1="98.000000" x2="173.800000" y2="98.000000"  style="stroke:black; stroke-linecap:round; stroke-width:0.25;"/>
<line x1="181.800000" y1="24.000000" x2="281.600000" y2="24.000000"  style="stroke:black; stroke-linecap:round; stroke-width:0.25;"/>
<line x1="233.600000" y1="108.000000" x2="237.600000" y2="108.000000"  style="stroke:black; stroke-linecap:round; stroke-width:0.25;"/>
<line x1="237.600000" y1="108.000000" x2="261.400000" y2="108.000000"  style="stroke:black; stroke-linecap:round; stroke-width:0.25;"/>
<line x1="247.400000" y1="150.000000" x2="251.400000" y2="150.000000"  style="stroke:black; stroke-linecap:round; stroke-width:0.25;"/>
<line x1="251.400000" y1="150.000000" x2="261.400000" y2="150.000000"  style="stroke:black; stroke-linecap:round; stroke-width:0.25;"/>
<line x1="253.600000" y1="76.000000" x2="257.600000" y2="76.000000"  style="stroke:black; stroke-linecap:round; stroke-width:0.25;"/>
<line x1="257.600000" y1="76.000000" x2="301.400000" y2="76.000000"  style="stroke:black; stroke-linecap:round; stroke-width:0.25;"/>
<line x1="261.400000" y1="138.000000" x2="269.400000" y2="138.000000"  style="stroke:black; stroke-linecap:round; stroke-width:0.25;"/>
<line x1="261.400000" y1="150.000000" x2="261.400000" y2="138.000000"  style="stroke:black; stroke-linecap:round; stroke-width:0.25;"/>
<line x1="261.400000" y1="150.000000" x2="261.400000" y2="150.000000"  style="stroke:black; stroke-linecap:round; stroke-width:0.25;"/>
<line x1="261.400000" y1="108.000000" x2="269.400000" y2="108.000000"  style="stroke:black; stroke-linecap:round; stroke-width:0.25;"/>
<line x1="269.400000" y1="130.000000" x2="273.400000" y2="130.000000"  style="stroke:black; stroke-linecap:round; stroke-width:0.25;"/>
<line x1="269.400000" y1="138.000000" x2="273.400000" y2="138.000000"  style="stroke:black; stroke-linecap:round; stroke-width:0.25;"/>
<line x1="269.400000" y1="108.000000" x2="269.400000" y2="130.000000"  style="stroke:black; stroke-linecap:round; stroke-width:0.25;"/>
<line x1="269.400000" y1="130.000000" x2="269.400000" y2="130.000000"  style="stroke:black; stroke-linecap:round; stroke-width:0.25;"/>
<line x1="273.600000" y1="44.000000" x2="277.600000" y2="44.000000"  style="stroke:black; stroke-linecap:round; stroke-width:0.25;"/>
<line x1="277.600000" y1="44.000000" x2="341.400000" y2="44.000000"  style="stroke:black; stroke-linecap:round; stroke-width:0.25;"/>
<line x1="281.600000" y1="24.000000" x2="381.400000" y2="24.000000"  style="stroke:black; stroke-linecap:round; stroke-width:0.25;"/>
<line x1="297.400000" y1="134.000000" x2="301.400000" y2="134.000000"  style="stroke:black; stroke-linecap:round; stroke-width:0.25;"/>
<line x1="301.400000" y1="122.000000" x2="309.400000" y2="122.000000"  style="stroke:black; stroke-linecap:round; stroke-width:0.25;"/>
<line x1="301.400000" y1="134.000000" x2="301.400000" y2="122.000000"  style="stroke:black; stroke-linecap:round; stroke-width:0.25;"/>
<line x1="301.400000" y1="134.000000" x2="301.400000" y2="134.000000"  style="stroke:black; stroke-linecap:round; stroke-width:0.25;"/>
<line x1="301.400000" y1="76.000000" x2="309.400000" y2="76.000000"  style="stroke:black; stroke-linecap:round; stroke-width:0.25;"/>
<line x1="309.400000" y1="114.000000" x2="313.400000" y2="114.000000"  style="stroke:black; stroke-linecap:round; stroke-width:0.25;"/>
<line x1="309.400000" y1="122.000000" x2="313.400000" y2="122.000000"  style="stroke:black; stroke-linecap:round; stroke-width:0.25;"/>
<line x1="309.400000" y1="76.000000" x2="309.400000" y2="114.000000"  style="stroke:black; stroke-linecap:round; stroke-width:0.25;"/>
<line x1="309.400000" y1="114.000000" x2="309.400000" y2="114.000000"  style="stroke:black; stroke-linecap:round; stroke-width:0.25;"/>
<line x1="337.400000" y1="118.000000" x2="341.400000" y2="118.000000"  style="stroke:black; stroke-linecap:round; stroke-width:0.25;"/>
<line x1="341.400000" y1="106.000000" x2="349.400000" y2="106.000000"  style="stroke:black; stroke-linecap:round; stroke-width:0.25;"/>
<line x1="341.400000" y1="118.000000" x2="341.400000" y2="106.000000"  style="stroke:black; stroke-linecap:round; stroke-width:0.25;"/>
<line x1="341.400000" y1="118.000000" x2="341.400000" y2="118.000000"  style="stroke:black; stroke-linecap:round; stroke-width:0.25;"/>
<line x1="341.400000" y1="44.000000" x2="349.400000" y2="44.000000"  style="stroke:black; stroke-linecap:round; stroke-width:0.25;"/>
<line x1="349.400000" y1="98.000000" x2="353.400000" y2="98.000000"  style="stroke:black; stroke-linecap:round; stroke-width:0.25;"/>
<line x1="349.400000" y1="106.000000" x2="353.400000" y2="106.000000"  style="stroke:black; stroke-linecap:round; stroke-width:0.25;"/>
<line x1="349.400000" y1="44.000000" x2="349.400000" y2="98.000000"  style="stroke:black; stroke-linecap:round; stroke-width:0.25;"/>
<line x1="349.400000" y1="98.000000" x2="349.400000" y2="98.000000"  style="stroke:black; stroke-linecap:round; stroke-width:0.25;"/>
<line x1="377.400000" y1="102.000000" x2="381.400000" y2="102.000000"  style="stroke:black; stroke-linecap:round; stroke-width:0.25;"/>
<line x1="381.400000" y1="102.000000" x2="389.400000" y2="102.000000"  style="stroke:black; stroke-linecap:round; stroke-width:0.25;"/>
<line x1="381.400000" y1="24.000000" x2="389.400000" y2="24.000000"  style="stroke:black; stroke-linecap:round; stroke-width:0.25;"/>
<line x1="389.400000" y1="94.000000" x2="393.400000" y2="94.000000"  style="stroke:black; stroke-linecap:round; stroke-width:0.25;"/>
<line x1="389.400000" y1="102.000000" x2="393.400000" y2="102.000000"  style="stroke:black; stroke-linecap:round; stroke-width:0.25;"/>
<line x1="389.400000" y1="24.000000" x2="389.400000" y2="94.000000"  style="stroke:black; stroke-linecap:round; stroke-width:0.25;"/>
<line x1="389.400000" y1="94.000000" x2="389.400000" y2="94.000000"  style="stroke:black; stroke-linecap:round; stroke-width:0.25;"/>
<line x1="417.400000" y1="98.000000" x2="421.400000" y2="98.000000"  style="stroke:black; stroke-linecap:round; stroke-width:0.25;"/>
<line x1="421.400000" y1="98.000000" x2="421.400000" y2="98.000000"  style="stroke:black; stroke-linecap:round; stroke-width:0.25;"/>
<line x1="421.400000" y1="98.000000" x2="425.400000" y2="98.000000"  style="stroke:black; stroke-linecap:round; stroke-width:0.25;"/>
<line x1="425.400000" y1="98.000000" x2="429.400000" y2="98.000000"  style="stroke:black; stroke-linecap:round; stroke-width:0.25;"/>
<line x1="429.400000" y1="98.000000" x2="439.400000" y2="98.000000"  style="stroke:black; stroke-linecap:round; stroke-width:0.25;"/>
</svg>
